<?xml version="1.0" encoding="UTF-8" standalone="no"?>
<!-- Created with Inkscape (http://www.inkscape.org/) -->
<svg
   xmlns:dc="http://purl.org/dc/elements/1.1/"
   xmlns:cc="http://web.resource.org/cc/"
   xmlns:rdf="http://www.w3.org/1999/02/22-rdf-syntax-ns#"
   xmlns:svg="http://www.w3.org/2000/svg"
   xmlns="http://www.w3.org/2000/svg"
   xmlns:sodipodi="http://sodipodi.sourceforge.net/DTD/sodipodi-0.dtd"
   xmlns:inkscape="http://www.inkscape.org/namespaces/inkscape"
   width="210mm"
   height="297mm"
   id="svg1"
   sodipodi:version="0.32"
   inkscape:version="0.44.1"
   sodipodi:docbase="/home/dcaliste/developpement/v_sim-dev/pixmaps/illustration"
   sodipodi:docname="axesDefinition.svg">
  <defs
     id="defs3">
    <marker
       style="overflow:visible;"
       id="Arrow1L"
       refX="0.0"
       refY="0.0"
       orient="auto"
       inkscape:stockid="Arrow1L">
      <path
         transform="scale(0.8)"
         style="fill-rule:evenodd;stroke:#000000;stroke-width:1.0pt;marker-start:none;"
         d="M 0.0,0.0 L 5.0,-5.0 L -12.5,0.0 L 5.0,5.0 L 0.0,0.0 z "
         id="path1786"
         sodipodi:nodetypes="ccccc" />
    </marker>
    <marker
       style="overflow:visible;"
       id="TriangleInM"
       refX="0.0"
       refY="0.0"
       orient="auto"
       inkscape:stockid="TriangleInM">
      <path
         transform="scale(-0.4)"
         style="fill-rule:evenodd;stroke:#000000;stroke-width:1.0pt;marker-start:none;"
         d="M 5.77,0.0 L -2.88,5.0 L -2.88,-5.0 L 5.77,0.0 z "
         id="path1738"
         sodipodi:nodetypes="cccc" />
    </marker>
    <marker
       style="overflow:visible;"
       id="TriangleOutL"
       refX="0.0"
       refY="0.0"
       orient="auto"
       inkscape:stockid="TriangleOutL">
      <path
         transform="scale(0.8)"
         style="fill-rule:evenodd;stroke:#000000;stroke-width:1.0pt;marker-start:none;"
         d="M 5.77,0.0 L -2.88,5.0 L -2.88,-5.0 L 5.77,0.0 z "
         id="path1734"
         sodipodi:nodetypes="cccc" />
    </marker>
    <marker
       style="overflow:visible;"
       id="TriangleInL"
       refX="0.0"
       refY="0.0"
       orient="auto"
       inkscape:stockid="TriangleInL">
      <path
         transform="scale(-0.8)"
         style="fill-rule:evenodd;stroke:#000000;stroke-width:1.0pt;marker-start:none;"
         d="M 5.77,0.0 L -2.88,5.0 L -2.88,-5.0 L 5.77,0.0 z "
         id="path1740"
         sodipodi:nodetypes="cccc" />
    </marker>
    <marker
       style="overflow:visible;"
       id="TriangleOutM"
       refX="0.0"
       refY="0.0"
       orient="auto"
       inkscape:stockid="TriangleOutM">
      <path
         transform="scale(0.4)"
         style="fill-rule:evenodd;stroke:#000000;stroke-width:1.0pt;marker-start:none;"
         d="M 5.77,0.0 L -2.88,5.0 L -2.88,-5.0 L 5.77,0.0 z "
         id="path1732"
         sodipodi:nodetypes="cccc" />
    </marker>
  </defs>
  <sodipodi:namedview
     id="base"
     pagecolor="#ffffff"
     bordercolor="#666666"
     borderopacity="1.0"
     inkscape:pageopacity="0.0"
     inkscape:pageshadow="2"
     inkscape:zoom="0.3482948"
     inkscape:cx="427.0425"
     inkscape:cy="670.15011"
     inkscape:current-layer="svg1"
     showguides="false"
     inkscape:guide-bbox="false"
     inkscape:guide-points="true"
     guidetolerance="5.0000000px"
     inkscape:window-width="1228"
     inkscape:window-height="766"
     inkscape:window-x="0"
     inkscape:window-y="0">
    <sodipodi:guide
       orientation="vertical"
       position="212.95507"
       id="guide1061" />
    <sodipodi:guide
       orientation="horizontal"
       position="385.08456"
       id="guide1062" />
    <sodipodi:guide
       orientation="vertical"
       position="305.64018"
       id="guide1801" />
    <sodipodi:guide
       orientation="horizontal"
       position="474.45949"
       id="guide1803" />
    <sodipodi:guide
       orientation="horizontal"
       position="305.64018"
       id="guide1804" />
  </sodipodi:namedview>
  <metadata
     id="metadata4">
    <rdf:RDF>
      <cc:Work
         rdf:about="">
        <dc:format>image/svg+xml</dc:format>
        <dc:type
           rdf:resource="http://purl.org/dc/dcmitype/StillImage" />
      </cc:Work>
    </rdf:RDF>
  </metadata>
  <path
     style="fill:none;fill-opacity:0.75;fill-rule:evenodd;stroke:black;stroke-width:1pt;stroke-linecap:butt;stroke-linejoin:miter;marker-end:url(#TriangleOutL);stroke-opacity:1"
     d="M 266.19384,571.00648 L 266.19384,429.22386"
     id="path1063"
     sodipodi:nodetypes="cc" />
  <path
     style="fill:none;fill-opacity:0.75;fill-rule:evenodd;stroke:black;stroke-width:1pt;stroke-linecap:butt;stroke-linejoin:miter;marker-start:none;marker-end:url(#TriangleOutL);stroke-opacity:1"
     d="M 266.19384,571.00648 L 371.97646,571.00648"
     id="path1065"
     sodipodi:nodetypes="cc" />
  <path
     style="fill:none;fill-opacity:0.75;fill-rule:evenodd;stroke:black;stroke-width:1pt;stroke-linecap:butt;stroke-linejoin:miter;marker-start:url(#TriangleInL);marker-end:none;stroke-opacity:1"
     d="M 202.05008,640.27862 L 266.19384,571.00648"
     id="path1066"
     sodipodi:nodetypes="cc" />
  <path
     style="fill:none;fill-opacity:0.75;fill-rule:evenodd;stroke:black;stroke-width:4.05;stroke-linecap:butt;stroke-linejoin:miter;marker-start:url(#TriangleInM);marker-end:none;stroke-opacity:1;stroke-miterlimit:4;stroke-dasharray:none"
     d="M 345.87867,492.50659 L 266.19384,571.00648"
     id="path1800"
     sodipodi:nodetypes="cc" />
  <path
     style="fill:none;fill-opacity:0.75;fill-rule:evenodd;stroke:black;stroke-width:1.25;stroke-linecap:butt;stroke-linejoin:miter;marker-start:url(#TriangleInM);marker-end:none;stroke-miterlimit:4;stroke-dasharray:3.75, 1.25;stroke-dashoffset:0;stroke-opacity:1"
     d="M 347.35506,634.8786 L 266.19384,571.00648"
     id="path1802"
     sodipodi:nodetypes="cc" />
  <path
     style="color:black;fill:none;fill-opacity:0.75;fill-rule:evenodd;stroke:black;stroke-width:1.25;stroke-linecap:butt;stroke-linejoin:miter;marker:none;marker-start:none;marker-mid:none;marker-end:none;stroke-miterlimit:4;stroke-dasharray:3.75, 1.25;stroke-dashoffset:0;stroke-opacity:1;visibility:visible;display:inline;overflow:visible"
     d="M 349.56964,490.29201 L 349.56964,635.31615"
     id="path1805"
     sodipodi:nodetypes="cc" />
  <path
     style="fill:none;fill-opacity:0.75;fill-rule:evenodd;stroke:black;stroke-width:2.762;stroke-linecap:butt;stroke-linejoin:miter;marker-start:none;marker-end:url(#TriangleOutL);stroke-miterlimit:4;stroke-dasharray:8.286,8.286;stroke-opacity:1;stroke-dashoffset:0"
     d="M 248.89998,589.78985 C 260.95163,600.09952 273.32324,598.98118 284.3373,589.26563"
     id="path1809"
     sodipodi:nodetypes="cs" />
  <text
     xml:space="preserve"
     style="font-size:40px;font-style:normal;font-variant:normal;font-weight:normal;font-stretch:condensed;text-align:start;line-height:100%;writing-mode:lr-tb;text-anchor:start;fill:black;fill-opacity:1;stroke:none;stroke-width:1pt;stroke-linecap:butt;stroke-linejoin:miter;stroke-opacity:1;font-family:DejaVu Serif"
     x="249.68633"
     y="625.55969"
     id="text1812"
     sodipodi:linespacing="100%"><tspan
       x="249.68633"
       y="625.55969"
       sodipodi:role="line"
       id="tspan1815">φ</tspan></text>
  <path
     style="fill:none;fill-opacity:0.75;fill-rule:evenodd;stroke:black;stroke-width:2.762;stroke-linecap:butt;stroke-linejoin:miter;marker-start:none;marker-end:url(#TriangleOutL);stroke-miterlimit:4;stroke-opacity:1;stroke-dasharray:8.286,8.286;stroke-dashoffset:0"
     d="M 266.19384,520.70596 C 280.55844,512.70925 291.88603,523.542 295.03605,537.42087"
     id="path1817"
     sodipodi:nodetypes="cs" />
  <text
     xml:space="preserve"
     style="font-size:40px;font-style:normal;font-variant:normal;font-weight:normal;font-stretch:condensed;text-align:start;line-height:100%;writing-mode:lr-tb;text-anchor:start;fill:black;fill-opacity:1;stroke:none;stroke-width:1pt;stroke-linecap:butt;stroke-linejoin:miter;stroke-opacity:1;font-family:DejaVu Serif"
     x="279.58212"
     y="512.61029"
     id="text1818"
     sodipodi:linespacing="100%"><tspan
       x="279.58212"
       y="512.61029"
       sodipodi:role="line"
       id="tspan1821">θ</tspan></text>
  <text
     xml:space="preserve"
     style="font-size:24px;font-style:normal;font-variant:normal;font-weight:normal;font-stretch:normal;line-height:100%;writing-mode:lr-tb;text-anchor:start;fill:black;fill-opacity:1;stroke:none;stroke-width:1pt;stroke-linecap:butt;stroke-linejoin:miter;stroke-opacity:1;font-family:KerkisCalligraphic"
     x="181.71342"
     y="628.26575"
     id="text1823"
     sodipodi:linespacing="100%"><tspan
       x="181.71342"
       y="628.26575"
       sodipodi:role="line"
       id="tspan1826">x</tspan></text>
  <text
     xml:space="preserve"
     style="font-size:24px;font-style:normal;font-variant:normal;font-weight:normal;font-stretch:normal;line-height:100%;writing-mode:lr-tb;text-anchor:start;fill:black;fill-opacity:1;stroke:none;stroke-width:1pt;stroke-linecap:butt;stroke-linejoin:miter;stroke-opacity:1;font-family:KerkisCalligraphic"
     x="380.26151"
     y="560.50922"
     id="text1828"
     sodipodi:linespacing="100%"><tspan
       x="380.26151"
       y="560.50922"
       sodipodi:role="line"
       id="tspan1834">y</tspan></text>
  <text
     xml:space="preserve"
     style="font-size:24px;font-style:normal;font-variant:normal;font-weight:normal;font-stretch:normal;line-height:100%;writing-mode:lr-tb;text-anchor:start;fill:black;fill-opacity:1;stroke:none;stroke-width:1pt;stroke-linecap:butt;stroke-linejoin:miter;stroke-opacity:1;font-family:KerkisCalligraphic"
     x="279.18829"
     y="428.05246"
     id="text1831"
     sodipodi:linespacing="100%"><tspan
       x="279.18829"
       y="428.05246"
       sodipodi:role="line"
       id="tspan1836">z</tspan></text>
  <path
     style="fill:none;fill-opacity:0.75;fill-rule:evenodd;stroke:black;stroke-width:1pt;stroke-linecap:butt;stroke-linejoin:miter;marker-end:url(#TriangleOutL);stroke-opacity:1"
     d="M 544.12424,569.21445 L 544.12424,427.43183"
     id="path2186"
     sodipodi:nodetypes="cc" />
  <path
     style="fill:none;fill-opacity:0.75;fill-rule:evenodd;stroke:black;stroke-width:1pt;stroke-linecap:butt;stroke-linejoin:miter;marker-start:none;marker-end:url(#TriangleOutL);stroke-opacity:1"
     d="M 544.12424,569.21445 L 649.90686,569.21445"
     id="path2188"
     sodipodi:nodetypes="cc" />
  <path
     style="fill:none;fill-opacity:0.75;fill-rule:evenodd;stroke:black;stroke-width:1pt;stroke-linecap:butt;stroke-linejoin:miter;marker-start:url(#TriangleInL);marker-end:none;stroke-opacity:1"
     d="M 479.98048,638.48659 L 544.12424,569.21445"
     id="path2190"
     sodipodi:nodetypes="cc" />
  <path
     style="fill:none;fill-opacity:0.75;fill-rule:evenodd;stroke:black;stroke-width:4.05;stroke-linecap:butt;stroke-linejoin:miter;marker-start:url(#TriangleInM);marker-end:none;stroke-opacity:1;stroke-miterlimit:4;stroke-dasharray:none"
     d="M 623.80907,490.71456 L 544.12424,569.21445"
     id="path2192"
     sodipodi:nodetypes="cc" />
  <path
     style="fill:none;fill-opacity:0.75;fill-rule:evenodd;stroke:black;stroke-width:1.25;stroke-linecap:butt;stroke-linejoin:miter;marker-start:url(#TriangleInM);marker-end:none;stroke-miterlimit:4;stroke-dasharray:3.75, 1.25;stroke-dashoffset:0;stroke-opacity:1"
     d="M 625.28546,633.08657 L 544.12424,569.21445"
     id="path2194"
     sodipodi:nodetypes="cc" />
  <path
     style="color:black;fill:none;fill-opacity:0.75;fill-rule:evenodd;stroke:black;stroke-width:1.25;stroke-linecap:butt;stroke-linejoin:miter;marker:none;marker-start:none;marker-mid:none;marker-end:none;stroke-miterlimit:4;stroke-dasharray:3.75, 1.25;stroke-dashoffset:0;stroke-opacity:1;visibility:visible;display:inline;overflow:visible"
     d="M 627.50004,488.49998 L 627.50004,633.52412"
     id="path2196"
     sodipodi:nodetypes="cc" />
  <text
     xml:space="preserve"
     style="font-size:24px;font-style:normal;font-variant:normal;font-weight:normal;font-stretch:normal;line-height:100%;writing-mode:lr-tb;text-anchor:start;fill:black;fill-opacity:1;stroke:none;stroke-width:1pt;stroke-linecap:butt;stroke-linejoin:miter;stroke-opacity:1;font-family:KerkisCalligraphic"
     x="459.64383"
     y="626.47369"
     id="text2210"
     sodipodi:linespacing="100%"><tspan
       x="459.64383"
       y="626.47369"
       sodipodi:role="line"
       id="tspan2212">x</tspan></text>
  <text
     xml:space="preserve"
     style="font-size:24px;font-style:normal;font-variant:normal;font-weight:normal;font-stretch:normal;line-height:100%;writing-mode:lr-tb;text-anchor:start;fill:black;fill-opacity:1;stroke:none;stroke-width:1pt;stroke-linecap:butt;stroke-linejoin:miter;stroke-opacity:1;font-family:KerkisCalligraphic"
     x="658.19189"
     y="558.71716"
     id="text2214"
     sodipodi:linespacing="100%"><tspan
       x="658.19189"
       y="558.71716"
       sodipodi:role="line"
       id="tspan2216">y</tspan></text>
  <text
     xml:space="preserve"
     style="font-size:24px;font-style:normal;font-variant:normal;font-weight:normal;font-stretch:normal;line-height:100%;writing-mode:lr-tb;text-anchor:start;fill:black;fill-opacity:1;stroke:none;stroke-width:1pt;stroke-linecap:butt;stroke-linejoin:miter;stroke-opacity:1;font-family:KerkisCalligraphic"
     x="557.11871"
     y="426.26044"
     id="text2218"
     sodipodi:linespacing="100%"><tspan
       x="557.11871"
       y="426.26044"
       sodipodi:role="line"
       id="tspan2220">z</tspan></text>
  <path
     style="fill:none;fill-opacity:0.75;fill-rule:evenodd;stroke:black;stroke-width:2.762;stroke-linecap:butt;stroke-linejoin:miter;stroke-miterlimit:4;stroke-dasharray:8.286,8.286;stroke-dashoffset:0;stroke-opacity:1"
     d="M 626.57145,635.10966 L 538.72626,609.61078"
     id="path4030"
     sodipodi:nodetypes="cc" />
  <path
     style="fill:none;fill-opacity:0.75;fill-rule:evenodd;stroke:black;stroke-width:2.762;stroke-linecap:butt;stroke-linejoin:miter;stroke-miterlimit:4;stroke-dasharray:8.286,8.286;stroke-dashoffset:0;stroke-opacity:1"
     d="M 632.47701,590.81797 L 626.57145,635.4476"
     id="path4032"
     sodipodi:nodetypes="cc" />
  <path
     style="fill:none;fill-opacity:0.75;fill-rule:evenodd;stroke:black;stroke-width:2.762;stroke-linecap:butt;stroke-linejoin:miter;stroke-miterlimit:4;stroke-dasharray:8.286,8.286;stroke-dashoffset:0;stroke-opacity:1"
     d="M 600.73463,466.80122 L 627.30965,487.07043"
     id="path4034"
     sodipodi:nodetypes="cc" />
  <path
     style="fill:none;fill-opacity:0.75;fill-rule:evenodd;stroke:red;stroke-width:1pt;stroke-linecap:butt;stroke-linejoin:miter;marker-start:none;marker-end:none;stroke-opacity:1"
     d="M 535.18954,658.20131 L 543.23049,569.7361"
     id="path2240"
     sodipodi:nodetypes="cc" />
  <path
     style="fill:none;fill-opacity:0.75;fill-rule:evenodd;stroke:red;stroke-width:1pt;stroke-linecap:butt;stroke-linejoin:miter;marker-start:none;marker-end:none;stroke-opacity:1"
     d="M 544.30231,568.782 L 644.61763,593.26061"
     id="path4026"
     sodipodi:nodetypes="cc" />
  <path
     style="fill:none;fill-opacity:0.75;fill-rule:evenodd;stroke:red;stroke-width:1pt;stroke-linecap:butt;stroke-linejoin:miter;marker-start:none;marker-end:none;stroke-opacity:1"
     d="M 544.30231,568.782 L 607.70788,454.47996"
     id="path4028"
     sodipodi:nodetypes="cc" />
  <path
     style="fill:none;fill-opacity:0.75;fill-rule:evenodd;stroke:black;stroke-width:1pt;stroke-linecap:butt;stroke-linejoin:miter;marker-end:url(#TriangleOutL);stroke-opacity:1"
     d="M 398.08404,261.67685 L 398.08404,119.89423"
     id="path4058"
     sodipodi:nodetypes="cc" />
  <path
     style="fill:none;fill-opacity:0.75;fill-rule:evenodd;stroke:black;stroke-width:1pt;stroke-linecap:butt;stroke-linejoin:miter;marker-start:none;marker-end:url(#TriangleOutL);stroke-opacity:1"
     d="M 398.08404,261.67685 L 523.86666,261.67685"
     id="path4060"
     sodipodi:nodetypes="cc" />
  <path
     style="fill:none;fill-opacity:0.75;fill-rule:evenodd;stroke:black;stroke-width:1pt;stroke-linecap:butt;stroke-linejoin:miter;marker-start:url(#TriangleInL);marker-end:none;stroke-opacity:1"
     d="M 333.94028,330.94899 L 398.08404,261.67685"
     id="path4062"
     sodipodi:nodetypes="cc" />
  <path
     style="fill:none;fill-opacity:0.75;fill-rule:evenodd;stroke:black;stroke-width:4.05;stroke-linecap:butt;stroke-linejoin:miter;marker-start:url(#TriangleInM);marker-end:none;stroke-opacity:1;stroke-miterlimit:4;stroke-dasharray:none"
     d="M 477.76887,183.17696 L 398.08404,261.67685"
     id="path4064"
     sodipodi:nodetypes="cc" />
  <path
     style="fill:none;fill-opacity:0.75;fill-rule:evenodd;stroke:black;stroke-width:1.25;stroke-linecap:butt;stroke-linejoin:miter;marker-start:url(#TriangleInM);marker-end:none;stroke-miterlimit:4;stroke-dasharray:3.75, 1.25;stroke-dashoffset:0;stroke-opacity:1"
     d="M 479.24526,325.54897 L 398.08404,261.67685"
     id="path4066"
     sodipodi:nodetypes="cc" />
  <path
     style="fill:none;fill-opacity:0.75;fill-rule:evenodd;stroke:black;stroke-width:1.25;stroke-linecap:butt;stroke-linejoin:miter;stroke-miterlimit:4;stroke-dasharray:3.75, 1.25;stroke-dashoffset:0;stroke-opacity:1;opacity:1;color:black;marker:none;marker-start:none;marker-mid:none;marker-end:none;visibility:visible;display:inline;overflow:visible"
     d="M 481.45984,180.96238 L 481.45984,325.98652"
     id="path4068"
     sodipodi:nodetypes="cc" />
  <text
     xml:space="preserve"
     style="font-size:24px;font-style:normal;font-variant:normal;font-weight:normal;font-stretch:normal;line-height:100%;writing-mode:lr-tb;text-anchor:start;fill:black;fill-opacity:1;stroke:none;stroke-width:1pt;stroke-linecap:butt;stroke-linejoin:miter;stroke-opacity:1;font-family:KerkisCalligraphic"
     x="313.60364"
     y="318.9361"
     id="text4070"
     sodipodi:linespacing="100%"><tspan
       x="313.60364"
       y="318.9361"
       sodipodi:role="line"
       id="tspan4072">x</tspan></text>
  <text
     xml:space="preserve"
     style="font-size:24px;font-style:normal;font-variant:normal;font-weight:normal;font-stretch:normal;line-height:100%;writing-mode:lr-tb;text-anchor:start;fill:black;fill-opacity:1;stroke:none;stroke-width:1pt;stroke-linecap:butt;stroke-linejoin:miter;stroke-opacity:1;font-family:KerkisCalligraphic"
     x="512.15167"
     y="251.17957"
     id="text4074"
     sodipodi:linespacing="100%"><tspan
       x="512.15167"
       y="251.17957"
       sodipodi:role="line"
       id="tspan4076">y</tspan></text>
  <text
     xml:space="preserve"
     style="font-size:24px;font-style:normal;font-variant:normal;font-weight:normal;font-stretch:normal;line-height:100%;writing-mode:lr-tb;text-anchor:start;fill:black;fill-opacity:1;stroke:none;stroke-width:1pt;stroke-linecap:butt;stroke-linejoin:miter;stroke-opacity:1;font-family:KerkisCalligraphic"
     x="411.07852"
     y="118.72284"
     id="text4078"
     sodipodi:linespacing="100%"><tspan
       x="411.07852"
       y="118.72284"
       sodipodi:role="line"
       id="tspan4080">z</tspan></text>
  <path
     style="fill:none;fill-opacity:0.75;fill-rule:evenodd;stroke:black;stroke-width:2.762;stroke-linecap:butt;stroke-linejoin:miter;stroke-miterlimit:4;stroke-dasharray:8.286,8.286;stroke-dashoffset:0;stroke-opacity:1"
     d="M 480.53125,327.57206 L 336.33494,327.31848"
     id="path4082"
     sodipodi:nodetypes="cc" />
  <path
     style="fill:none;fill-opacity:0.75;fill-rule:evenodd;stroke:black;stroke-width:2.762;stroke-linecap:butt;stroke-linejoin:miter;stroke-miterlimit:4;stroke-dasharray:8.286,8.286;stroke-dashoffset:0;stroke-opacity:1"
     d="M 517.54263,261.64154 L 480.53125,327.91"
     id="path4084"
     sodipodi:nodetypes="cc" />
  <path
     style="fill:none;fill-opacity:0.75;fill-rule:evenodd;stroke:black;stroke-width:2.762;stroke-linecap:butt;stroke-linejoin:miter;stroke-miterlimit:4;stroke-dasharray:8.286,8.286;stroke-dashoffset:0;stroke-opacity:1"
     d="M 397.8925,122.29729 L 481.26945,179.53283"
     id="path4086"
     sodipodi:nodetypes="cc" />
</svg>
